#seq_name	length	cov.	circ.	repeat	mult.	alt_group	graph_path
contig_6	44961	4	N	Y	1	*	*,6,*
contig_2	41033	6	Y	Y	1	*	2
contig_4	12238	7	N	Y	1	*	*,4,*
contig_5	7551	3	N	Y	1	*	*,5,*
contig_1	3158	3	N	Y	1	*	*,1,*
