digraph {
nodesep = 0.5;
node [shape = circle, label = "", height = 0.3];
"0" [style = "filled", fillcolor = "grey"];
"1" [style = "filled", fillcolor = "grey"];
"2" [style = "filled", fillcolor = "grey"];
"3" [style = "filled", fillcolor = "grey"];
"4" [style = "filled", fillcolor = "grey"];
"5" [style = "filled", fillcolor = "grey"];
"6" [style = "filled", fillcolor = "grey"];
"7" [style = "filled", fillcolor = "grey"];
"8" [style = "filled", fillcolor = "grey"];
"9" [style = "filled", fillcolor = "grey"];
"10" [style = "filled", fillcolor = "grey"];
"11" [style = "filled", fillcolor = "grey"];
"12" [style = "filled", fillcolor = "grey"];
"13" [style = "filled", fillcolor = "grey"];
"14" [style = "filled", fillcolor = "grey"];
"15" [style = "filled", fillcolor = "grey"];
"16" [style = "filled", fillcolor = "grey"];
"17" [style = "filled", fillcolor = "grey"];
"18" [style = "filled", fillcolor = "grey"];
"19" [style = "filled", fillcolor = "grey"];
"20" [style = "filled", fillcolor = "grey"];
"21" [style = "filled", fillcolor = "grey"];
"22" [style = "filled", fillcolor = "grey"];
"23" [style = "filled", fillcolor = "grey"];
"24" [style = "filled", fillcolor = "grey"];
"25" [style = "filled", fillcolor = "grey"];
"26" [style = "filled", fillcolor = "grey"];
"27" [style = "filled", fillcolor = "grey"];
"28" [style = "filled", fillcolor = "grey"];
"29" [style = "filled", fillcolor = "grey"];
"30" [style = "filled", fillcolor = "grey"];
"31" [style = "filled", fillcolor = "grey"];
"32" [style = "filled", fillcolor = "grey"];
"33" [style = "filled", fillcolor = "grey"];
"34" [style = "filled", fillcolor = "grey"];
"35" [style = "filled", fillcolor = "grey"];
"36" [style = "filled", fillcolor = "grey"];
"37" [style = "filled", fillcolor = "grey"];
"38" [style = "filled", fillcolor = "grey"];
"39" [style = "filled", fillcolor = "grey"];
"40" [style = "filled", fillcolor = "grey"];
"41" [style = "filled", fillcolor = "grey"];
"42" [style = "filled", fillcolor = "grey"];
"43" [style = "filled", fillcolor = "grey"];
"44" [style = "filled", fillcolor = "grey"];
"45" [style = "filled", fillcolor = "grey"];
"46" [style = "filled", fillcolor = "grey"];
"47" [style = "filled", fillcolor = "grey"];
"32" -> "35" [label = "id 1\l49k 3x", color = "black"] ;
"28" -> "16" [label = "id -1\l49k 3x", color = "black"] ;
"42" -> "21" [label = "id 2\l23k 3x", color = "black"] ;
"14" -> "23" [label = "id -2\l23k 3x", color = "black"] ;
"41" -> "18" [label = "id 3\l94k 3x", color = "black"] ;
"31" -> "0" [label = "id -3\l94k 3x", color = "black"] ;
"12" -> "30" [label = "id 4\l14k 3x", color = "black"] ;
"34" -> "36" [label = "id -4\l14k 3x", color = "black"] ;
"38" -> "39" [label = "id 5\l8k 3x", color = "black"] ;
"40" -> "22" [label = "id -5\l8k 3x", color = "black"] ;
"24" -> "43" [label = "id 6\l69k 3x", color = "black"] ;
"20" -> "44" [label = "id -6\l69k 3x", color = "black"] ;
"45" -> "47" [label = "id 7\l178k 3x", color = "black"] ;
"26" -> "13" [label = "id -7\l178k 3x", color = "black"] ;
"33" -> "37" [label = "id 8\l58k 3x", color = "black"] ;
"15" -> "17" [label = "id -8\l58k 3x", color = "black"] ;
"10" -> "29" [label = "id 9\l48k 3x", color = "black"] ;
"9" -> "8" [label = "id -9\l48k 3x", color = "black"] ;
"7" -> "6" [label = "id 10\l24k 3x", color = "black"] ;
"11" -> "5" [label = "id -10\l24k 3x", color = "black"] ;
"4" -> "3" [label = "id 11\l40k 3x", color = "black"] ;
"2" -> "1" [label = "id -11\l40k 3x", color = "black"] ;
"19" -> "25" [label = "id 12\l94k 3x", color = "black"] ;
"27" -> "46" [label = "id -12\l94k 3x", color = "black"] ;
}
