#                                                                            --- full sequence --- -------------- this domain -------------   hmm coord   ali coord   env coord
# target name        accession   tlen query name           accession   qlen   E-value  score  bias   #  of  c-Evalue  i-Evalue  score  bias  from    to  from    to  from    to  acc description of target
#------------------- ---------- ----- -------------------- ---------- ----- --------- ------ ----- --- --- --------- --------- ------ ----- ----- ----- ----- ----- ----- ----- ---- ---------------------
contig_2_45          -            241 HTH_24               PF13412.1     48   0.00048   13.4   1.0   1   2   7.7e-06    0.0015   11.8   0.1    17    48    10    42     3    42 0.89 # 26710 # 27432 # -1 # ID=2_45;partial=00;start_type=ATG;rbs_motif=GGAG/GAGG;rbs_spacer=5-10bp;gc_cont=0.469
contig_2_45          -            241 HTH_24               PF13412.1     48   0.00048   13.4   1.0   2   2     0.066        12   -0.8   0.0    17    28    42    53    42    55 0.81 # 26710 # 27432 # -1 # ID=2_45;partial=00;start_type=ATG;rbs_motif=GGAG/GAGG;rbs_spacer=5-10bp;gc_cont=0.469
contig_2_42          -             63 Cupin_7              PF12973.2     91    0.0014   12.3   0.0   1   1   7.9e-06    0.0015   12.2   0.0    15    60    12    57     2    61 0.84 # 25875 # 26063 # -1 # ID=2_42;partial=00;start_type=ATG;rbs_motif=GGAG/GAGG;rbs_spacer=5-10bp;gc_cont=0.513
contig_6_14          -            329 AA_permease_2        PF13520.1    426   1.7e-32  106.2  41.6   1   1   1.1e-34     2e-32  106.0  41.6     1   284     7   282     7   283 0.90 # 6499 # 7485 # -1 # ID=5_14;partial=00;start_type=ATG;rbs_motif=GGAG/GAGG;rbs_spacer=5-10bp;gc_cont=0.488
contig_5_6           -            132 TIGR01890            TIGR01890    429   1.6e-05   17.5   0.0   1   1     1e-07     2e-05   17.2   0.0   322   389    60   129    51   131 0.91 # 2969 # 3364 # 1 # ID=4_6;partial=00;start_type=ATG;rbs_motif=None;rbs_spacer=None;gc_cont=0.523
contig_2_40          -            105 Cytochrom_c3_2       PF14537.1     80   0.00012   16.2   0.1   1   1   1.6e-06   0.00031   14.9   0.1     6    66    12    92     7   101 0.57 # 25250 # 25564 # -1 # ID=2_40;partial=00;start_type=ATG;rbs_motif=None;rbs_spacer=None;gc_cont=0.530
contig_1_2           -            157 IF-2B                PF01008.12   282   8.4e-05   15.4   0.2   1   1     6e-07   0.00011   15.0   0.2   176   209    10    41     4    61 0.87 # 680 # 1150 # -1 # ID=1_2;partial=00;start_type=TTG;rbs_motif=None;rbs_spacer=None;gc_cont=0.565
contig_6_4           -            321 tRNA-synt_2          PF00152.15   335   1.1e-48  159.4   0.1   1   1   2.7e-50   1.7e-48  158.9   0.1     1   138   129   263   129   283 0.95 # 1104 # 2066 # -1 # ID=5_4;partial=00;start_type=GTG;rbs_motif=None;rbs_spacer=None;gc_cont=0.480
contig_6_2           -             52 tRNA-synt_2          PF00152.15   335   1.7e-20   66.8   0.1   1   1   2.7e-22   1.7e-20   66.8   0.1   290   334     4    48     1    49 0.95 # 648 # 803 # -1 # ID=5_2;partial=00;start_type=ATG;rbs_motif=3Base/5BMM;rbs_spacer=13-15bp;gc_cont=0.487
contig_6_3           -            104 tRNA-synt_2          PF00152.15   335   5.3e-16   52.0   0.0   1   1   8.5e-18   5.4e-16   52.0   0.0   203   277    28   100     2   103 0.80 # 832 # 1143 # -1 # ID=5_3;partial=00;start_type=ATG;rbs_motif=None;rbs_spacer=None;gc_cont=0.462
contig_6_40          -            130 TIGR02515            TIGR02515    428   4.3e-13   42.4   5.3   1   2   5.2e-11   9.9e-09   28.1   1.1   158   217     4    63     1    71 0.84 # 22641 # 23030 # -1 # ID=5_40;partial=00;start_type=ATG;rbs_motif=None;rbs_spacer=None;gc_cont=0.379
contig_6_40          -            130 TIGR02515            TIGR02515    428   4.3e-13   42.4   5.3   2   2   1.6e-08     3e-06   19.9   0.9   239   293    52   104    43   110 0.76 # 22641 # 23030 # -1 # ID=5_40;partial=00;start_type=ATG;rbs_motif=None;rbs_spacer=None;gc_cont=0.379
contig_6_4           -            321 TIGR00457            TIGR00457    455   3.9e-16   52.3   0.0   1   1   5.5e-18   5.2e-16   51.9   0.0    13   255    29   263    21   273 0.80 # 1104 # 2066 # -1 # ID=5_4;partial=00;start_type=GTG;rbs_motif=None;rbs_spacer=None;gc_cont=0.480
contig_6_2           -             52 TIGR00457            TIGR00457    455   2.1e-09   30.2   0.0   1   1   2.3e-11   2.1e-09   30.1   0.0   409   449     7    47     4    51 0.91 # 648 # 803 # -1 # ID=5_2;partial=00;start_type=ATG;rbs_motif=3Base/5BMM;rbs_spacer=13-15bp;gc_cont=0.487
contig_2_40          -            105 DnaJ_CXXCXGXG        PF00684.14    66   9.8e-08   25.8   1.0   1   1   8.2e-10   1.6e-07   25.2   1.0    16    53    13    50     7    56 0.90 # 25250 # 25564 # -1 # ID=2_40;partial=00;start_type=ATG;rbs_motif=None;rbs_spacer=None;gc_cont=0.530
contig_2_60          -            244 HTH_37               PF13744.1     80     8e-05   16.3   0.0   1   1   1.5e-06   0.00014   15.4   0.0    22    58     9    45     2    60 0.88 # 32391 # 33122 # 1 # ID=2_60;partial=00;start_type=ATG;rbs_motif=GGA/GAG/AGG;rbs_spacer=5-10bp;gc_cont=0.448
contig_2_59          -             77 HTH_37               PF13744.1     80    0.0018   12.0   0.0   1   1   2.5e-05    0.0023   11.6   0.0    33    55    15    37     3    51 0.88 # 32052 # 32282 # -1 # ID=2_59;partial=00;start_type=ATG;rbs_motif=GGAG/GAGG;rbs_spacer=5-10bp;gc_cont=0.476
contig_2_40          -            105 Cytochrome_CBB3      PF13442.1     67    0.0013   12.7   1.7   1   1   0.00011     0.022    8.8   1.7    12    33    13    34    10   103 0.73 # 25250 # 25564 # -1 # ID=2_40;partial=00;start_type=ATG;rbs_motif=None;rbs_spacer=None;gc_cont=0.530
contig_2_31          -            441 Terminase_3          PF04466.8    387  4.2e-133  437.9   0.0   1   1  2.6e-135    5e-133  437.7   0.0     2   374    15   434    14   438 0.98 # 19413 # 20735 # -1 # ID=2_31;partial=00;start_type=ATG;rbs_motif=3Base/5BMM;rbs_spacer=13-15bp;gc_cont=0.510
contig_6_69          -            157 Big_3_4              PF13754.1     54   2.9e-05   18.2   0.1   1   1   2.4e-07   4.6e-05   17.5   0.1    26    49   121   144    96   147 0.88 # 37104 # 37574 # 1 # ID=5_69;partial=00;start_type=ATG;rbs_motif=None;rbs_spacer=None;gc_cont=0.444
contig_2_6           -             84 TraY                 PF05509.6     49   4.5e-06   20.2   0.3   1   1   7.7e-08   7.3e-06   19.5   0.3     1    33    11    43    11    44 0.93 # 5004 # 5255 # 1 # ID=2_6;partial=00;start_type=ATG;rbs_motif=GGA/GAG/AGG;rbs_spacer=5-10bp;gc_cont=0.401
contig_2_5           -             47 TraY                 PF05509.6     49   3.4e-05   17.4   0.5   1   1   4.3e-07     4e-05   17.2   0.5     2    38     5    41     5    41 0.97 # 4757 # 4897 # -1 # ID=2_5;partial=00;start_type=ATG;rbs_motif=GGAG/GAGG;rbs_spacer=5-10bp;gc_cont=0.454
contig_6_35          -             90 SLT                  PF01464.15   121   1.2e-19   63.9   0.2   1   1   7.2e-22   1.4e-19   63.6   0.2    45   120     1    75     1    76 0.97 # 19905 # 20174 # -1 # ID=5_35;partial=00;start_type=ATG;rbs_motif=None;rbs_spacer=None;gc_cont=0.296
contig_1_2           -            157 MFS_2                PF13347.1    428    0.0001   14.6  13.0   1   1   8.6e-07   0.00016   13.9  13.0   270   388    11   121     6   140 0.88 # 680 # 1150 # -1 # ID=1_2;partial=00;start_type=TTG;rbs_motif=None;rbs_spacer=None;gc_cont=0.565
contig_6_64          -            131 PNPase_C             PF12111.3     39    0.0018   11.3   1.2   1   1   1.8e-05    0.0034   10.4   1.2    21    35   109   123   105   126 0.94 # 34845 # 35237 # 1 # ID=5_64;partial=00;start_type=GTG;rbs_motif=3Base/5BMM;rbs_spacer=13-15bp;gc_cont=0.542
contig_2_46          -             54 zf-ribbon_3          PF13248.1     26   0.00069   12.7   0.0   1   1   5.1e-06   0.00096   12.2   0.0    16    26    29    39    20    40 0.78 # 27472 # 27633 # -1 # ID=2_46;partial=00;start_type=ATG;rbs_motif=GGA/GAG/AGG;rbs_spacer=5-10bp;gc_cont=0.488
contig_5_2           -            410 tRNA-synt_1g         PF09334.6    391   3.6e-05   16.3   0.0   1   2   1.2e-05    0.0023   10.4   0.0   324   344     9    29     6    35 0.87 # 299 # 1528 # 1 # ID=4_2;partial=00;start_type=ATG;rbs_motif=None;rbs_spacer=None;gc_cont=0.567
contig_5_2           -            410 tRNA-synt_1g         PF09334.6    391   3.6e-05   16.3   0.0   2   2    0.0013      0.24    3.7   0.0   344   372    66    94    59   108 0.83 # 299 # 1528 # 1 # ID=4_2;partial=00;start_type=ATG;rbs_motif=None;rbs_spacer=None;gc_cont=0.567
contig_2_36          -            146 PspB                 PF06667.7     75   0.00082   13.1   0.6   1   1   8.5e-06    0.0016   12.2   0.3     1    52     1    52     1    88 0.80 # 22961 # 23398 # -1 # ID=2_36;partial=00;start_type=ATG;rbs_motif=GGA/GAG/AGG;rbs_spacer=5-10bp;gc_cont=0.516
contig_5_6           -            132 Acetyltransf_4       PF13420.1    155   1.5e-06   22.1   0.0   1   1   8.3e-09   1.6e-06   22.0   0.0     2   120    12   130    11   131 0.78 # 2969 # 3364 # 1 # ID=4_6;partial=00;start_type=ATG;rbs_motif=None;rbs_spacer=None;gc_cont=0.523
contig_2_59          -             77 HTH_19               PF12844.2     64   0.00031   14.6   0.0   1   1   1.9e-06   0.00036   14.4   0.0    14    47    15    48     3    64 0.83 # 32052 # 32282 # -1 # ID=2_59;partial=00;start_type=ATG;rbs_motif=GGAG/GAGG;rbs_spacer=5-10bp;gc_cont=0.476
contig_2_40          -            105 GSu_C4xC__C2xCH      PF09698.5     36     0.033    8.3   5.6   1   2    0.0001     0.019    9.0   0.7     7    35    18    44    14    44 0.89 # 25250 # 25564 # -1 # ID=2_40;partial=00;start_type=ATG;rbs_motif=None;rbs_spacer=None;gc_cont=0.530
contig_2_40          -            105 GSu_C4xC__C2xCH      PF09698.5     36     0.033    8.3   5.6   2   2     0.087        17   -0.4   0.1    20    27    69    76    65    79 0.78 # 25250 # 25564 # -1 # ID=2_40;partial=00;start_type=ATG;rbs_motif=None;rbs_spacer=None;gc_cont=0.530
contig_1_2           -            157 MFS_1                PF07690.11   352   2.1e-15   50.0  14.6   1   1   2.4e-17   2.3e-15   49.9  14.6    56   183    26   151    10   156 0.86 # 680 # 1150 # -1 # ID=1_2;partial=00;start_type=TTG;rbs_motif=None;rbs_spacer=None;gc_cont=0.565
contig_1_4           -            193 MFS_1                PF07690.11   352   2.4e-13   43.3  18.7   1   1   3.3e-15   3.2e-13   42.9  18.7   213   351    30   177     7   185 0.79 # 1351 # 1929 # -1 # ID=1_4;partial=00;start_type=ATG;rbs_motif=None;rbs_spacer=None;gc_cont=0.546
contig_2_37          -            159 Phage_lysozyme       PF00959.14   110   1.7e-24   80.1   0.0   1   1   1.4e-26   2.6e-24   79.5   0.0     1   109    33   140    33   141 0.97 # 23395 # 23871 # -1 # ID=2_37;partial=00;start_type=ATG;rbs_motif=GGAG/GAGG;rbs_spacer=5-10bp;gc_cont=0.509
contig_2_74          -             67 Phage_AlpA           PF05930.7     51   1.6e-06   21.7   0.0   1   1   9.5e-09   1.8e-06   21.4   0.0     3    38    10    45     8    52 0.88 # 39458 # 39658 # 1 # ID=2_74;partial=00;start_type=ATG;rbs_motif=GGAG/GAGG;rbs_spacer=5-10bp;gc_cont=0.433
contig_2_6           -             84 HicB                 PF05534.7     51   0.00015   15.2   0.1   1   1   1.1e-06   0.00021   14.7   0.1    12    45     2    36     1    42 0.91 # 5004 # 5255 # 1 # ID=2_6;partial=00;start_type=ATG;rbs_motif=GGA/GAG/AGG;rbs_spacer=5-10bp;gc_cont=0.401
contig_5_2           -            410 tRNA-synt_1f         PF01921.13   360     0.001   11.5   0.0   1   1   8.9e-06    0.0017   10.8   0.0   274   298     4    28     2    38 0.83 # 299 # 1528 # 1 # ID=4_2;partial=00;start_type=ATG;rbs_motif=None;rbs_spacer=None;gc_cont=0.567
contig_2_54          -             97 MarR_2               PF12802.2     62   0.00029   14.3   0.0   1   1     2e-06   0.00038   14.0   0.0    10    53     7    48     5    69 0.90 # 29677 # 29967 # -1 # ID=2_54;partial=00;start_type=ATG;rbs_motif=GGAG/GAGG;rbs_spacer=5-10bp;gc_cont=0.505
contig_6_10          -            206 OKR_DC_1             PF01276.15   417   2.1e-91  300.3   0.0   1   1   3.9e-93   2.5e-91  300.0   0.0    47   245     1   197     1   201 0.99 # 4928 # 5545 # -1 # ID=5_10;partial=00;start_type=ATG;rbs_motif=None;rbs_spacer=None;gc_cont=0.495
contig_6_9           -            305 OKR_DC_1             PF01276.15   417   5.9e-73  239.5   0.0   1   1   1.1e-74   7.2e-73  239.2   0.0   250   417     1   169     1   169 0.99 # 4027 # 4941 # -1 # ID=5_9;partial=00;start_type=ATG;rbs_motif=GGA/GAG/AGG;rbs_spacer=5-10bp;gc_cont=0.501
contig_6_11          -             93 OKR_DC_1             PF01276.15   417     3e-13   42.8   0.4   1   2     0.051       3.2   -0.1   0.0   277   294    32    49    21    54 0.83 # 5577 # 5855 # -1 # ID=5_11;partial=00;start_type=ATG;rbs_motif=None;rbs_spacer=None;gc_cont=0.437
contig_6_11          -             93 OKR_DC_1             PF01276.15   417     3e-13   42.8   0.4   2   2   1.8e-14   1.2e-12   40.9   0.3     1    33    58    90    58    92 0.97 # 5577 # 5855 # -1 # ID=5_11;partial=00;start_type=ATG;rbs_motif=None;rbs_spacer=None;gc_cont=0.437
contig_5_13          -            149 Cupin_3              PF05899.7     74   0.00069   12.8   0.0   1   1   6.9e-06    0.0013   12.0   0.0    42    73   106   141    81   144 0.86 # 6887 # 7333 # -1 # ID=4_13;partial=00;start_type=ATG;rbs_motif=GGAG/GAGG;rbs_spacer=5-10bp;gc_cont=0.503
contig_6_4           -            321 TIGR00459            TIGR00459    586   1.6e-30   99.4   0.0   1   1   2.2e-32   2.1e-30   99.0   0.0    13   252    29   264    21   286 0.82 # 1104 # 2066 # -1 # ID=5_4;partial=00;start_type=GTG;rbs_motif=None;rbs_spacer=None;gc_cont=0.480
contig_6_2           -             52 TIGR00459            TIGR00459    586   6.8e-15   47.8   0.1   1   1     8e-17   7.6e-15   47.7   0.1   519   556     9    46     6    50 0.94 # 648 # 803 # -1 # ID=5_2;partial=00;start_type=ATG;rbs_motif=3Base/5BMM;rbs_spacer=13-15bp;gc_cont=0.487
contig_6_4           -            321 TIGR00462            TIGR00462    304   1.1e-28   94.1   0.0   1   1   2.2e-30   1.4e-28   93.7   0.0     4   117   154   263   151   305 0.89 # 1104 # 2066 # -1 # ID=5_4;partial=00;start_type=GTG;rbs_motif=None;rbs_spacer=None;gc_cont=0.480
contig_6_3           -            104 TIGR00462            TIGR00462    304   4.9e-20   65.6   0.0   1   1     9e-22   5.7e-20   65.4   0.0   154   247     9   100     2   102 0.89 # 832 # 1143 # -1 # ID=5_3;partial=00;start_type=ATG;rbs_motif=None;rbs_spacer=None;gc_cont=0.462
contig_6_2           -             52 TIGR00462            TIGR00462    304     2e-12   40.6   0.0   1   1   3.4e-14   2.1e-12   40.5   0.0   263   304     3    44     1    44 0.96 # 648 # 803 # -1 # ID=5_2;partial=00;start_type=ATG;rbs_motif=3Base/5BMM;rbs_spacer=13-15bp;gc_cont=0.487
contig_6_41          -            104 Hpr_kinase_N         PF02603.11   127   0.00017   15.1   0.0   1   1   1.5e-06   0.00029   14.4   0.0    85   123    36    74    32    75 0.93 # 23504 # 23815 # -1 # ID=5_41;partial=00;start_type=TTG;rbs_motif=GGA/GAG/AGG;rbs_spacer=5-10bp;gc_cont=0.340
contig_6_46          -            101 DUF2892              PF11127.3     66    0.0038   10.9   5.2   1   1   4.8e-05     0.009    9.7   5.2     7    43    37    89    35    97 0.80 # 25307 # 25609 # -1 # ID=5_46;partial=00;start_type=ATG;rbs_motif=GGAG/GAGG;rbs_spacer=5-10bp;gc_cont=0.449
contig_2_54          -             97 HemN_C               PF06969.11    66    0.0016   12.3   0.0   1   1   1.2e-05    0.0022   11.9   0.0     8    59     4    54     3    55 0.91 # 29677 # 29967 # -1 # ID=2_54;partial=00;start_type=ATG;rbs_motif=GGAG/GAGG;rbs_spacer=5-10bp;gc_cont=0.505
contig_2_42          -             63 Dna2                 PF08696.6    209    0.0011   12.1   0.0   1   1   6.2e-06    0.0012   12.0   0.0    56    96     9    52     2    55 0.73 # 25875 # 26063 # -1 # ID=2_42;partial=00;start_type=ATG;rbs_motif=GGAG/GAGG;rbs_spacer=5-10bp;gc_cont=0.513
contig_5_6           -            132 Acetyltransf_7       PF13508.1     79   3.4e-08   27.4   0.0   1   1   3.9e-10   7.4e-08   26.3   0.0     3    64    60   128    58   130 0.82 # 2969 # 3364 # 1 # ID=4_6;partial=00;start_type=ATG;rbs_motif=None;rbs_spacer=None;gc_cont=0.523
contig_5_6           -            132 Acetyltransf_1       PF00583.19    83   2.7e-10   34.0   0.2   1   1   3.1e-12   5.9e-10   32.9   0.1     2    67    66   129    65   130 0.94 # 2969 # 3364 # 1 # ID=4_6;partial=00;start_type=ATG;rbs_motif=None;rbs_spacer=None;gc_cont=0.523
contig_2_31          -            441 Helicase_RecD        PF05127.9    177   8.1e-05   16.1   0.0   1   1   6.7e-07   0.00013   15.5   0.0     3   103    21   124    19   137 0.71 # 19413 # 20735 # -1 # ID=2_31;partial=00;start_type=ATG;rbs_motif=3Base/5BMM;rbs_spacer=13-15bp;gc_cont=0.510
contig_2_46          -             54 NinF                 PF05810.7     58   4.4e-20   65.1   0.3   1   1   2.5e-22   4.8e-20   65.0   0.3     1    35    12    47    12    53 0.95 # 27472 # 27633 # -1 # ID=2_46;partial=00;start_type=ATG;rbs_motif=GGA/GAG/AGG;rbs_spacer=5-10bp;gc_cont=0.488
contig_6_60          -             85 A2M_comp             PF07678.9    246   0.00015   14.8   0.0   1   1   8.7e-07   0.00017   14.7   0.0    53   107    19    75     5    83 0.81 # 32832 # 33086 # 1 # ID=5_60;partial=00;start_type=TTG;rbs_motif=3Base/5BMM;rbs_spacer=13-15bp;gc_cont=0.427
contig_2_76          -            116 TIGR02224            TIGR02224    295   0.00082   12.3   0.0   1   1   4.8e-06   0.00091   12.1   0.0   167   267     2    93     1   112 0.73 # 40686 # 41033 # 1 # ID=2_76;partial=01;start_type=ATG;rbs_motif=None;rbs_spacer=None;gc_cont=0.489
contig_6_51          -            172 ATP-synt_ab          PF00006.20   215   1.6e-17   57.5   0.1   1   1   1.1e-19   2.1e-17   57.1   0.1     2    65    88   151    87   162 0.92 # 28362 # 28877 # 1 # ID=5_51;partial=00;start_type=GTG;rbs_motif=None;rbs_spacer=None;gc_cont=0.484
contig_5_6           -            132 Acetyltransf_CG      PF14542.1     78   3.6e-07   23.8   0.0   1   1   2.9e-09   5.4e-07   23.3   0.0    19    57    84   122    52   124 0.77 # 2969 # 3364 # 1 # ID=4_6;partial=00;start_type=ATG;rbs_motif=None;rbs_spacer=None;gc_cont=0.523
contig_2_59          -             77 P22_Cro              PF14549.1     60     4e-09   29.9   0.2   1   1   2.9e-11   5.6e-09   29.5   0.2     3    48     7    55     6    61 0.95 # 32052 # 32282 # -1 # ID=2_59;partial=00;start_type=ATG;rbs_motif=GGAG/GAGG;rbs_spacer=5-10bp;gc_cont=0.476
contig_6_5           -            125 DUF308               PF03729.8     72     0.002   12.0  11.4   1   2   6.5e-06    0.0012   12.6   2.1    29    71     3    47     1    48 0.84 # 2551 # 2925 # -1 # ID=5_5;partial=00;start_type=GTG;rbs_motif=None;rbs_spacer=None;gc_cont=0.563
contig_6_5           -            125 DUF308               PF03729.8     72     0.002   12.0  11.4   2   2    0.0029      0.56    4.1   2.0    22    43    91   112    60   122 0.78 # 2551 # 2925 # -1 # ID=5_5;partial=00;start_type=GTG;rbs_motif=None;rbs_spacer=None;gc_cont=0.563
contig_5_6           -            132 Acetyltransf_10      PF13673.1    117   1.5e-10   35.1   0.0   1   1   9.9e-13   1.9e-10   34.7   0.0     1   103    18   127    18   130 0.83 # 2969 # 3364 # 1 # ID=4_6;partial=00;start_type=ATG;rbs_motif=None;rbs_spacer=None;gc_cont=0.523
contig_2_34          -            124 Glyco_hydro_100      PF12899.2    436   0.00021   13.5   0.0   1   1   1.4e-06   0.00027   13.2   0.0   401   434    89   122    83   123 0.93 # 21583 # 21954 # -1 # ID=2_34;partial=00;start_type=ATG;rbs_motif=GGA/GAG/AGG;rbs_spacer=5-10bp;gc_cont=0.484
contig_2_54          -             97 DUF977               PF06163.6    127   3.4e-07   23.9   0.2   1   2   0.00017     0.032    7.8   0.0    14    61     4    51     1    67 0.85 # 29677 # 29967 # -1 # ID=2_54;partial=00;start_type=ATG;rbs_motif=GGAG/GAGG;rbs_spacer=5-10bp;gc_cont=0.505
contig_2_54          -             97 DUF977               PF06163.6    127   3.4e-07   23.9   0.2   2   2   9.3e-07   0.00018   15.1   0.1    96   122    66    92    52    95 0.84 # 29677 # 29967 # -1 # ID=2_54;partial=00;start_type=ATG;rbs_motif=GGAG/GAGG;rbs_spacer=5-10bp;gc_cont=0.505
contig_5_6           -            132 TIGR01575            TIGR01575    132     5e-05   17.0   0.0   1   1   3.5e-07   6.6e-05   16.6   0.0    13    95    41   127    36   130 0.78 # 2969 # 3364 # 1 # ID=4_6;partial=00;start_type=ATG;rbs_motif=None;rbs_spacer=None;gc_cont=0.523
contig_6_51          -            172 AAA_10               PF12846.2    304    0.0025   11.0   0.1   1   1     2e-05    0.0038   10.4   0.1     6    24   106   124   103   129 0.91 # 28362 # 28877 # 1 # ID=5_51;partial=00;start_type=GTG;rbs_motif=None;rbs_spacer=None;gc_cont=0.484
contig_6_51          -            172 DUF87                PF01935.12   229   0.00086   12.9   0.9   1   1     7e-06    0.0013   12.3   0.9    23    44   101   122    98   125 0.90 # 28362 # 28877 # 1 # ID=5_51;partial=00;start_type=GTG;rbs_motif=None;rbs_spacer=None;gc_cont=0.484
contig_6_38          -             83 TPR_3                PF07720.7     36   3.2e-12   39.9   0.2   1   1   1.7e-14   3.2e-12   39.9   0.2     1    36    32    65    32    65 0.96 # 22002 # 22250 # -1 # ID=5_38;partial=00;start_type=ATG;rbs_motif=GGA/GAG/AGG;rbs_spacer=5-10bp;gc_cont=0.382
contig_5_7           -            102 YbjN                 PF10722.4    127   0.00066   13.5   0.2   1   1   5.4e-06     0.001   12.9   0.2    86   122    45    81    40    85 0.93 # 3557 # 3862 # -1 # ID=4_7;partial=00;start_type=ATG;rbs_motif=None;rbs_spacer=None;gc_cont=0.516
contig_5_3           -            247 DUF898               PF05987.8    339   6.7e-35  114.3   5.0   1   1   1.3e-36   8.4e-35  114.0   5.0   130   328    22   226    12   235 0.94 # 1582 # 2322 # -1 # ID=4_3;partial=00;start_type=ATG;rbs_motif=None;rbs_spacer=None;gc_cont=0.374
contig_5_5           -             89 DUF898               PF05987.8    339   3.2e-30   98.9   0.8   1   1   5.8e-32   3.7e-30   98.7   0.8     2    72    11    81    10    85 0.96 # 2511 # 2777 # -1 # ID=4_5;partial=00;start_type=ATG;rbs_motif=GGA/GAG/AGG;rbs_spacer=5-10bp;gc_cont=0.345
contig_5_4           -             55 DUF898               PF05987.8    339   3.6e-13   42.9   0.3   1   1   5.7e-15   3.6e-13   42.9   0.3    86   133     7    54     1    54 0.91 # 2347 # 2511 # -1 # ID=4_4;partial=00;start_type=ATG;rbs_motif=None;rbs_spacer=None;gc_cont=0.400
contig_2_54          -             97 HTH_20               PF12840.2     61   0.00093   12.8   0.0   1   1   7.7e-06    0.0015   12.2   0.0    15    57     7    49     6    53 0.90 # 29677 # 29967 # -1 # ID=2_54;partial=00;start_type=ATG;rbs_motif=GGAG/GAGG;rbs_spacer=5-10bp;gc_cont=0.505
contig_1_2           -            157 MFS_3                PF05977.8    524   1.8e-06   20.0   5.8   1   1   1.1e-08     2e-06   19.9   5.8    92   195    43   145    15   155 0.66 # 680 # 1150 # -1 # ID=1_2;partial=00;start_type=TTG;rbs_motif=None;rbs_spacer=None;gc_cont=0.565
contig_2_36          -            146 Phage_lysis          PF03245.8    125   2.7e-44  144.0   5.3   1   1   3.1e-46     3e-44  143.9   5.3     5   125    26   144    22   144 0.95 # 22961 # 23398 # -1 # ID=2_36;partial=00;start_type=ATG;rbs_motif=GGA/GAG/AGG;rbs_spacer=5-10bp;gc_cont=0.516
contig_2_47          -            134 Phage_lysis          PF03245.8    125   6.2e-05   16.8   1.5   1   1     9e-07   8.6e-05   16.4   1.5     8    63    61   118    55   124 0.89 # 27593 # 27994 # -1 # ID=2_47;partial=00;start_type=ATG;rbs_motif=GGAG/GAGG;rbs_spacer=5-10bp;gc_cont=0.415
contig_6_2           -             52 tRNA-synt_2d         PF01409.15   247   0.00023   14.2   0.0   1   1   2.4e-06   0.00023   14.2   0.0   213   236    18    41     3    45 0.87 # 648 # 803 # -1 # ID=5_2;partial=00;start_type=ATG;rbs_motif=3Base/5BMM;rbs_spacer=13-15bp;gc_cont=0.487
contig_6_4           -            321 tRNA-synt_2d         PF01409.15   247    0.0011   11.9   0.2   1   2     0.082       7.8   -0.6   0.0    19    43   154   178   139   181 0.81 # 1104 # 2066 # -1 # ID=5_4;partial=00;start_type=GTG;rbs_motif=None;rbs_spacer=None;gc_cont=0.480
contig_6_4           -            321 tRNA-synt_2d         PF01409.15   247    0.0011   11.9   0.2   2   2   6.3e-05     0.006    9.6   0.0   104   133   221   250   218   262 0.90 # 1104 # 2066 # -1 # ID=5_4;partial=00;start_type=GTG;rbs_motif=None;rbs_spacer=None;gc_cont=0.480
contig_6_16          -            113 Lipid_bd             PF12888.2    112   0.00045   13.9   0.1   1   1   3.8e-06   0.00072   13.2   0.1    43    99     6    62     2    70 0.93 # 8377 # 8715 # -1 # ID=5_16;partial=00;start_type=GTG;rbs_motif=3Base/5BMM;rbs_spacer=13-15bp;gc_cont=0.419
contig_5_2           -            410 TIGR00392            TIGR00392    861   5.2e-37  120.9   0.0   1   1   7.4e-39     7e-37  120.4   0.0   600   843     1   279     1   295 0.94 # 299 # 1528 # 1 # ID=4_2;partial=00;start_type=ATG;rbs_motif=None;rbs_spacer=None;gc_cont=0.567
contig_5_1           -            100 TIGR00392            TIGR00392    861   0.00069   11.3   0.2   1   1   7.6e-06   0.00072   11.2   0.2   527   585    20    78     5    89 0.82 # 3 # 302 # 1 # ID=4_1;partial=10;start_type=Edge;rbs_motif=None;rbs_spacer=None;gc_cont=0.530
contig_2_42          -             63 HTH_8                PF02954.14    42   7.2e-05   16.1   0.0   1   1   5.7e-07   0.00011   15.6   0.0    13    29    11    27     6    34 0.82 # 25875 # 26063 # -1 # ID=2_42;partial=00;start_type=ATG;rbs_motif=GGAG/GAGG;rbs_spacer=5-10bp;gc_cont=0.513
contig_2_31          -            441 Terminase_6          PF03237.10   384   1.9e-07   23.9   0.1   1   1   4.9e-09   9.2e-07   21.7   0.1     3   229    21   270    19   431 0.66 # 19413 # 20735 # -1 # ID=2_31;partial=00;start_type=ATG;rbs_motif=3Base/5BMM;rbs_spacer=13-15bp;gc_cont=0.510
contig_2_60          -            244 HTH_26               PF13443.1     63   3.5e-05   17.8   0.0   1   1   6.5e-07   6.2e-05   17.0   0.0     1    53     9    59     9    63 0.91 # 32391 # 33122 # 1 # ID=2_60;partial=00;start_type=ATG;rbs_motif=GGA/GAG/AGG;rbs_spacer=5-10bp;gc_cont=0.448
contig_2_59          -             77 HTH_26               PF13443.1     63   0.00042   14.3   0.0   1   1   5.9e-06   0.00056   14.0   0.0    12    44    15    46     6    55 0.87 # 32052 # 32282 # -1 # ID=2_59;partial=00;start_type=ATG;rbs_motif=GGAG/GAGG;rbs_spacer=5-10bp;gc_cont=0.476
contig_6_51          -            172 TIGR00962            TIGR00962    503   2.9e-10   32.9   0.0   1   1   1.7e-12   3.2e-10   32.8   0.0    65   178     4   118     1   155 0.77 # 28362 # 28877 # 1 # ID=5_51;partial=00;start_type=GTG;rbs_motif=None;rbs_spacer=None;gc_cont=0.484
contig_6_51          -            172 DUF258               PF03193.11   161    0.0004   13.4   0.0   1   1   2.7e-06   0.00051   13.1   0.0    35    75   102   141    85   158 0.77 # 28362 # 28877 # 1 # ID=5_51;partial=00;start_type=GTG;rbs_motif=None;rbs_spacer=None;gc_cont=0.484
contig_2_40          -            105 Multi-haem_cyto      PF13447.1    267   0.00038   13.4   1.1   1   1   2.8e-06   0.00053   12.9   1.1     5    40    15    50    12   101 0.86 # 25250 # 25564 # -1 # ID=2_40;partial=00;start_type=ATG;rbs_motif=None;rbs_spacer=None;gc_cont=0.530
contig_6_4           -            321 tRNA-synt_2b         PF00587.20   173     1e-05   19.0   0.1   1   2   1.3e-05    0.0025   11.2   0.0     2    27   154   178   153   180 0.91 # 1104 # 2066 # -1 # ID=5_4;partial=00;start_type=GTG;rbs_motif=None;rbs_spacer=None;gc_cont=0.480
contig_6_4           -            321 tRNA-synt_2b         PF00587.20   173     1e-05   19.0   0.1   2   2   0.00075      0.14    5.5   0.0    85   122   221   256   220   305 0.75 # 1104 # 2066 # -1 # ID=5_4;partial=00;start_type=GTG;rbs_motif=None;rbs_spacer=None;gc_cont=0.480
contig_6_7           -            130 Cation_efflux        PF01545.16   285   6.8e-05   15.8   0.7   1   1   5.3e-07    0.0001   15.3   0.7   147   207    18    81     6    84 0.72 # 3315 # 3704 # -1 # ID=5_7;partial=00;start_type=ATG;rbs_motif=None;rbs_spacer=None;gc_cont=0.538
contig_5_6           -            132 Acetyltransf_9       PF13527.1    127   0.00036   14.2   0.1   1   1   2.8e-06   0.00053   13.7   0.1    41   111    60   126    11   131 0.81 # 2969 # 3364 # 1 # ID=4_6;partial=00;start_type=ATG;rbs_motif=None;rbs_spacer=None;gc_cont=0.523
contig_4_18          -             83 DNA_methylase        PF00145.12   335   9.2e-14   45.0   0.0   1   1   1.2e-15   1.1e-13   44.7   0.0    83   158     6    78     4    79 0.90 # 11557 # 11805 # 1 # ID=3_18;partial=00;start_type=ATG;rbs_motif=None;rbs_spacer=None;gc_cont=0.357
contig_4_17          -             75 DNA_methylase        PF00145.12   335     1e-10   35.0   0.0   1   1   1.3e-12   1.2e-10   34.8   0.0    21    72    12    67     7    70 0.83 # 11345 # 11569 # 1 # ID=3_17;partial=00;start_type=GTG;rbs_motif=None;rbs_spacer=None;gc_cont=0.413
contig_2_6           -             84 RHH_1                PF01402.16    39   0.00015   15.5   0.4   1   1     3e-06   0.00028   14.6   0.4     2    36    11    45    10    48 0.85 # 5004 # 5255 # 1 # ID=2_6;partial=00;start_type=ATG;rbs_motif=GGA/GAG/AGG;rbs_spacer=5-10bp;gc_cont=0.401
contig_2_5           -             47 RHH_1                PF01402.16    39   0.00037   14.2   1.6   1   1   1.2e-05    0.0011   12.7   1.7     3    24     5    26     5    42 0.89 # 4757 # 4897 # -1 # ID=2_5;partial=00;start_type=ATG;rbs_motif=GGAG/GAGG;rbs_spacer=5-10bp;gc_cont=0.454
contig_5_13          -            149 DUF386               PF04074.7    153   9.5e-15   48.2   0.0   1   2    0.0069       1.3    2.3   0.0     1    28     1    24     1    55 0.61 # 6887 # 7333 # -1 # ID=4_13;partial=00;start_type=ATG;rbs_motif=GGAG/GAGG;rbs_spacer=5-10bp;gc_cont=0.503
contig_5_13          -            149 DUF386               PF04074.7    153   9.5e-15   48.2   0.0   2   2   9.4e-16   1.8e-13   44.1   0.0    89   152    86   147    71   148 0.85 # 6887 # 7333 # -1 # ID=4_13;partial=00;start_type=ATG;rbs_motif=GGAG/GAGG;rbs_spacer=5-10bp;gc_cont=0.503
contig_2_19          -             90 SlyX                 PF04102.7     69    0.0005   14.3   3.4   1   1     4e-06   0.00075   13.7   3.4     3    58    30    84    26    89 0.73 # 12496 # 12765 # -1 # ID=2_19;partial=00;start_type=GTG;rbs_motif=None;rbs_spacer=None;gc_cont=0.519
contig_6_35          -             90 HTH_10               PF04967.7     53   0.00043   13.7   0.1   1   1     6e-06    0.0011   12.3   0.1    12    27    52    67    49    68 0.89 # 19905 # 20174 # -1 # ID=5_35;partial=00;start_type=ATG;rbs_motif=None;rbs_spacer=None;gc_cont=0.296
contig_2_59          -             77 HTH_23               PF13384.1     50   0.00078   12.9   0.1   1   1   5.2e-06     0.001   12.6   0.1    10    39     5    35     3    48 0.83 # 32052 # 32282 # -1 # ID=2_59;partial=00;start_type=ATG;rbs_motif=GGAG/GAGG;rbs_spacer=5-10bp;gc_cont=0.476
contig_2_6           -             84 Arc                  PF03869.9     50   2.5e-12   40.1   0.1   1   1   3.2e-14   3.1e-12   39.8   0.1     3    46     7    50     5    54 0.88 # 5004 # 5255 # 1 # ID=2_6;partial=00;start_type=ATG;rbs_motif=GGA/GAG/AGG;rbs_spacer=5-10bp;gc_cont=0.401
contig_2_5           -             47 Arc                  PF03869.9     50   9.7e-10   31.8   0.2   1   1   1.2e-11   1.2e-09   31.6   0.2     9    46     6    43     4    45 0.96 # 4757 # 4897 # -1 # ID=2_5;partial=00;start_type=ATG;rbs_motif=GGAG/GAGG;rbs_spacer=5-10bp;gc_cont=0.454
contig_6_51          -            172 ABC_tran             PF00005.22   137   0.00035   14.7   0.3   1   1   2.8e-06   0.00053   14.1   0.3     8    33    98   123    95   137 0.88 # 28362 # 28877 # 1 # ID=5_51;partial=00;start_type=GTG;rbs_motif=None;rbs_spacer=None;gc_cont=0.484
contig_2_74          -             67 HTH_17               PF12728.2     51   0.00027   15.0   0.1   1   1   1.9e-06   0.00035   14.6   0.1    12    39    21    51    12    53 0.85 # 39458 # 39658 # 1 # ID=2_74;partial=00;start_type=ATG;rbs_motif=GGAG/GAGG;rbs_spacer=5-10bp;gc_cont=0.433
contig_5_2           -            410 TIGR00422            TIGR00422    863  4.3e-121  398.9   0.0   1   1  5.1e-123  4.8e-121  398.7   0.0   515   863     1   390     1   390 0.99 # 299 # 1528 # 1 # ID=4_2;partial=00;start_type=ATG;rbs_motif=None;rbs_spacer=None;gc_cont=0.567
contig_5_1           -            100 TIGR00422            TIGR00422    863   6.9e-38  123.6   0.4   1   1   8.3e-40   7.9e-38  123.4   0.4   424   507     1    85     1    91 0.96 # 3 # 302 # 1 # ID=4_1;partial=10;start_type=Edge;rbs_motif=None;rbs_spacer=None;gc_cont=0.530
contig_2_47          -            134 OmpH                 PF03938.9    158     1e-05   19.3   0.5   1   1   7.1e-08   1.3e-05   18.9   0.5    20    81    55   117    45   126 0.90 # 27593 # 27994 # -1 # ID=2_47;partial=00;start_type=ATG;rbs_motif=GGAG/GAGG;rbs_spacer=5-10bp;gc_cont=0.415
contig_5_9           -             70 TIGR03316            TIGR03316    357   0.00022   14.1   0.0   1   1   1.3e-06   0.00025   14.0   0.0   289   315    20    46     9    55 0.89 # 4777 # 4986 # 1 # ID=4_9;partial=00;start_type=ATG;rbs_motif=None;rbs_spacer=None;gc_cont=0.510
contig_6_20          -            120 Phytase-like         PF13449.1    326   3.4e-07   23.6   0.0   1   1   2.5e-09   4.7e-07   23.1   0.0     5   105    27   110    21   118 0.83 # 11663 # 12022 # -1 # ID=5_20;partial=00;start_type=ATG;rbs_motif=AGxAGG/AGGxGG;rbs_spacer=3-4bp;gc_cont=0.408
contig_2_3           -            709 Beta_helix           PF13229.1    158     2e-08   27.9  28.0   1   3   1.1e-10     2e-08   27.9  28.0    13   141   236   375   198   390 0.67 # 1487 # 3613 # -1 # ID=2_3;partial=00;start_type=ATG;rbs_motif=GGAG/GAGG;rbs_spacer=5-10bp;gc_cont=0.422
contig_2_3           -            709 Beta_helix           PF13229.1    158     2e-08   27.9  28.0   2   3   0.00055       0.1    6.1  11.5    29   141   333   487   330   498 0.57 # 1487 # 3613 # -1 # ID=2_3;partial=00;start_type=ATG;rbs_motif=GGAG/GAGG;rbs_spacer=5-10bp;gc_cont=0.422
contig_2_3           -            709 Beta_helix           PF13229.1    158     2e-08   27.9  28.0   3   3      0.05       9.4   -0.2   0.2   115   135   612   637   574   659 0.66 # 1487 # 3613 # -1 # ID=2_3;partial=00;start_type=ATG;rbs_motif=GGAG/GAGG;rbs_spacer=5-10bp;gc_cont=0.422
contig_2_40          -            105 Cytochrome_C7        PF14522.1     65   9.9e-06   19.0   0.1   1   2   4.6e-07   8.8e-05   16.0   0.1    12    45    12    45     5    63 0.62 # 25250 # 25564 # -1 # ID=2_40;partial=00;start_type=ATG;rbs_motif=None;rbs_spacer=None;gc_cont=0.530
contig_2_40          -            105 Cytochrome_C7        PF14522.1     65   9.9e-06   19.0   0.1   2   2     0.019       3.6    1.2   0.0    17    21    87    91    71   103 0.73 # 25250 # 25564 # -1 # ID=2_40;partial=00;start_type=ATG;rbs_motif=None;rbs_spacer=None;gc_cont=0.530
contig_2_59          -             77 HTH_3                PF01381.17    55     6e-07   23.1   0.0   1   1   7.7e-09   7.3e-07   22.8   0.0    11    51    15    55     6    57 0.93 # 32052 # 32282 # -1 # ID=2_59;partial=00;start_type=ATG;rbs_motif=GGAG/GAGG;rbs_spacer=5-10bp;gc_cont=0.476
contig_2_60          -            244 HTH_3                PF01381.17    55   1.9e-06   21.5   0.0   1   1   3.5e-08   3.4e-06   20.7   0.0     4    55    13    63    10    63 0.95 # 32391 # 33122 # 1 # ID=2_60;partial=00;start_type=ATG;rbs_motif=GGA/GAG/AGG;rbs_spacer=5-10bp;gc_cont=0.448
contig_6_20          -            120 SdiA-regulated       PF06977.6    249   1.1e-32  106.7   0.4   1   1   6.3e-35   1.2e-32  106.6   0.4   132   248     1   115     1   116 0.95 # 11663 # 12022 # -1 # ID=5_20;partial=00;start_type=ATG;rbs_motif=AGxAGG/AGGxGG;rbs_spacer=3-4bp;gc_cont=0.408
contig_5_1           -            100 tRNA-synt_1          PF00133.17   601   6.2e-28   90.9   0.2   1   1   7.5e-30   7.1e-28   90.7   0.2   474   544    18    87     3    97 0.86 # 3 # 302 # 1 # ID=4_1;partial=10;start_type=Edge;rbs_motif=None;rbs_spacer=None;gc_cont=0.530
contig_5_2           -            410 tRNA-synt_1          PF00133.17   601   1.7e-17   56.4   0.0   1   1   2.4e-19   2.3e-17   56.0   0.0   550   601     1    89     1    89 0.98 # 299 # 1528 # 1 # ID=4_2;partial=00;start_type=ATG;rbs_motif=None;rbs_spacer=None;gc_cont=0.567
contig_6_7           -            130 PTR2                 PF00854.16   373     1e-18   61.0   0.1   1   1     2e-20   1.3e-18   60.7   0.1     3    74    25    87    23    94 0.95 # 3315 # 3704 # -1 # ID=5_7;partial=00;start_type=ATG;rbs_motif=None;rbs_spacer=None;gc_cont=0.538
contig_6_5           -            125 PTR2                 PF00854.16   373   6.1e-14   45.3   3.4   1   1   1.1e-15   6.8e-14   45.2   3.4   260   370     2   105     1   108 0.91 # 2551 # 2925 # -1 # ID=5_5;partial=00;start_type=GTG;rbs_motif=None;rbs_spacer=None;gc_cont=0.563
contig_6_6           -             77 PTR2                 PF00854.16   373   0.00019   14.1   0.2   1   1   3.4e-06   0.00022   13.9   0.2   112   156     1    44     1    50 0.93 # 3103 # 3333 # -1 # ID=5_6;partial=00;start_type=ATG;rbs_motif=GGxGG;rbs_spacer=3-4bp;gc_cont=0.472
contig_6_14          -            329 AA_permease          PF00324.16   478     4e-15   48.8  34.3   1   1   2.7e-17   5.2e-15   48.5  34.3     8   296    18   278     8   282 0.82 # 6499 # 7485 # -1 # ID=5_14;partial=00;start_type=ATG;rbs_motif=GGAG/GAGG;rbs_spacer=5-10bp;gc_cont=0.488
contig_6_65          -            128 CesT                 PF05932.8    119   1.1e-18   61.0   0.0   1   1   1.4e-20   1.3e-18   60.8   0.0    25   118     3    95     1    96 0.96 # 35453 # 35836 # 1 # ID=5_65;partial=00;start_type=GTG;rbs_motif=None;rbs_spacer=None;gc_cont=0.362
contig_6_57          -             62 CesT                 PF05932.8    119    0.0001   16.0   0.0   1   1   1.1e-06   0.00011   15.9   0.0     1    54     4    54     4    60 0.79 # 32092 # 32277 # -1 # ID=5_57;partial=00;start_type=ATG;rbs_motif=GGA/GAG/AGG;rbs_spacer=5-10bp;gc_cont=0.339
contig_6_51          -            172 TIGR02868            TIGR02868    530   0.00024   13.3   0.1   1   1   1.4e-06   0.00027   13.1   0.1   357   385    97   125    85   164 0.84 # 28362 # 28877 # 1 # ID=5_51;partial=00;start_type=GTG;rbs_motif=None;rbs_spacer=None;gc_cont=0.484
contig_5_7           -            102 RraB                 PF06877.6    104   1.1e-23   77.8   0.4   1   1   6.6e-26   1.3e-23   77.5   0.4    30   104    14    89    12    89 0.96 # 3557 # 3862 # -1 # ID=4_7;partial=00;start_type=ATG;rbs_motif=None;rbs_spacer=None;gc_cont=0.516
contig_6_51          -            172 TIGR02857            TIGR02857    529    0.0015   11.0   0.1   1   1   8.8e-06    0.0017   10.8   0.1   345   370    98   123    87   159 0.84 # 28362 # 28877 # 1 # ID=5_51;partial=00;start_type=GTG;rbs_motif=None;rbs_spacer=None;gc_cont=0.484
contig_2_54          -             97 HTH_Crp_2            PF13545.1     76   0.00045   13.8   0.0   1   1   4.8e-06   0.00091   12.9   0.0    33    66    21    54    19    56 0.93 # 29677 # 29967 # -1 # ID=2_54;partial=00;start_type=ATG;rbs_motif=GGAG/GAGG;rbs_spacer=5-10bp;gc_cont=0.505
contig_6_34          -             89 TIGR00160            TIGR00160    143   0.00074   13.0   0.0   1   1   3.9e-06   0.00075   13.0   0.0    92   133    31    74     7    83 0.84 # 19642 # 19908 # 1 # ID=5_34;partial=00;start_type=GTG;rbs_motif=None;rbs_spacer=None;gc_cont=0.352
contig_2_62          -            165 FdhE                 PF04216.7    293   0.00086   12.8   0.0   1   1   5.8e-06    0.0011   12.5   0.0    97   215    16   150     5   151 0.62 # 33891 # 34385 # -1 # ID=2_62;partial=00;start_type=ATG;rbs_motif=GGA/GAG/AGG;rbs_spacer=5-10bp;gc_cont=0.414
contig_2_47          -            134 60KD_IMP             PF02096.15   198    0.0046   10.4   5.9   1   2     0.049       9.4   -0.4   0.0   148   167    20    39     8    45 0.78 # 27593 # 27994 # -1 # ID=2_47;partial=00;start_type=ATG;rbs_motif=GGAG/GAGG;rbs_spacer=5-10bp;gc_cont=0.415
contig_2_47          -            134 60KD_IMP             PF02096.15   198    0.0046   10.4   5.9   2   2   5.1e-05    0.0097    9.4   4.8    24    63    73   112    68   116 0.91 # 27593 # 27994 # -1 # ID=2_47;partial=00;start_type=ATG;rbs_motif=GGAG/GAGG;rbs_spacer=5-10bp;gc_cont=0.415
contig_2_19          -             90 AAA_13               PF13166.1    712   0.00057   12.2   3.5   1   1   3.3e-06   0.00063   12.0   3.5   404   458    32    86     3    88 0.59 # 12496 # 12765 # -1 # ID=2_19;partial=00;start_type=GTG;rbs_motif=None;rbs_spacer=None;gc_cont=0.519
contig_6_51          -            172 TIGR01039            TIGR01039    462   7.6e-13   41.4   0.0   1   1   5.1e-15   9.6e-13   41.1   0.0    48   198     4   152     2   160 0.86 # 28362 # 28877 # 1 # ID=5_51;partial=00;start_type=GTG;rbs_motif=None;rbs_spacer=None;gc_cont=0.484
contig_2_58          -             77 Phage_CII            PF05269.6     91   2.2e-28   92.0   0.1   1   1   1.2e-30   2.3e-28   91.9   0.1     1    73     1    74     1    76 0.96 # 31702 # 31932 # -1 # ID=2_58;partial=00;start_type=ATG;rbs_motif=GGA/GAG/AGG;rbs_spacer=11-12bp;gc_cont=0.446
contig_2_1           -            241 RNase_P_p30          PF01876.11   150    0.0016   11.5   0.1   1   1   1.4e-05    0.0027   10.8   0.1    38    84   188   234   185   238 0.94 # 271 # 993 # -1 # ID=2_1;partial=00;start_type=ATG;rbs_motif=GGA/GAG/AGG;rbs_spacer=5-10bp;gc_cont=0.340
contig_2_60          -            244 HTH_31               PF13560.1     64   0.00018   15.5   0.0   1   1   5.3e-06    0.0005   14.1   0.0     2    41     6    44     5    61 0.87 # 32391 # 33122 # 1 # ID=2_60;partial=00;start_type=ATG;rbs_motif=GGA/GAG/AGG;rbs_spacer=5-10bp;gc_cont=0.448
contig_2_59          -             77 HTH_31               PF13560.1     64   0.00053   14.0   0.0   1   1   7.2e-06   0.00068   13.7   0.0    16    51    15    49    14    59 0.89 # 32052 # 32282 # -1 # ID=2_59;partial=00;start_type=ATG;rbs_motif=GGAG/GAGG;rbs_spacer=5-10bp;gc_cont=0.476
contig_2_37          -            159 Transglycosylas      PF06737.9     77    0.0012   13.0   0.5   1   1   3.4e-05    0.0065   10.6   0.0    26    60    62   100    57   107 0.82 # 23395 # 23871 # -1 # ID=2_37;partial=00;start_type=ATG;rbs_motif=GGAG/GAGG;rbs_spacer=5-10bp;gc_cont=0.509
contig_5_6           -            132 Acetyltransf_3       PF13302.1    142   4.3e-06   20.8   0.0   1   1   3.5e-08   6.6e-06   20.2   0.0    40   123    51   126    10   130 0.68 # 2969 # 3364 # 1 # ID=4_6;partial=00;start_type=ATG;rbs_motif=None;rbs_spacer=None;gc_cont=0.523
contig_2_32          -            142 HTH_7                PF02796.10    45   1.8e-05   18.4   0.0   1   1   1.9e-07   3.6e-05   17.4   0.0     1    41     9    50     9    54 0.86 # 20732 # 21157 # -1 # ID=2_32;partial=00;start_type=ATG;rbs_motif=AGxAGG/AGGxGG;rbs_spacer=11-12bp;gc_cont=0.519
contig_6_8           -             39 Polysacc_deac_3      PF15421.1    425   0.00042   12.9   0.0   1   1   2.2e-06   0.00042   12.9   0.0   390   417    11    38     1    38 0.87 # 3921 # 4037 # -1 # ID=5_8;partial=00;start_type=ATG;rbs_motif=GGAG/GAGG;rbs_spacer=5-10bp;gc_cont=0.462
contig_6_51          -            172 AAA_29               PF13555.1     62    0.0018   11.6   0.1   1   2     0.026       4.9    0.7   0.0     8    22    24    38    18    43 0.82 # 28362 # 28877 # 1 # ID=5_51;partial=00;start_type=GTG;rbs_motif=None;rbs_spacer=None;gc_cont=0.484
contig_6_51          -            172 AAA_29               PF13555.1     62    0.0018   11.6   0.1   2   2    0.0001     0.019    8.4   0.0    31    40   109   118    96   131 0.80 # 28362 # 28877 # 1 # ID=5_51;partial=00;start_type=GTG;rbs_motif=None;rbs_spacer=None;gc_cont=0.484
contig_6_51          -            172 TIGR01277            TIGR01277    213     0.002   11.2   0.1   1   1   1.8e-05    0.0034   10.5   0.1    19    45    96   122    89   128 0.88 # 28362 # 28877 # 1 # ID=5_51;partial=00;start_type=GTG;rbs_motif=None;rbs_spacer=None;gc_cont=0.484
contig_5_2           -            410 Val_tRNA-synt_C      PF10458.4     66   1.2e-19   64.0   7.1   1   1   2.9e-21   2.7e-19   62.9   7.1     3    61   344   402   342   407 0.95 # 299 # 1528 # 1 # ID=4_2;partial=00;start_type=ATG;rbs_motif=None;rbs_spacer=None;gc_cont=0.567
contig_2_36          -            146 Val_tRNA-synt_C      PF10458.4     66    0.0014   12.5   0.1   1   2     0.053         5    1.2   0.0    41    65    23    47    22    48 0.83 # 22961 # 23398 # -1 # ID=2_36;partial=00;start_type=ATG;rbs_motif=GGA/GAG/AGG;rbs_spacer=5-10bp;gc_cont=0.516
contig_2_36          -            146 Val_tRNA-synt_C      PF10458.4     66    0.0014   12.5   0.1   2   2   0.00025     0.023    8.6   0.0     1    24    53    76    53    83 0.92 # 22961 # 23398 # -1 # ID=2_36;partial=00;start_type=ATG;rbs_motif=GGA/GAG/AGG;rbs_spacer=5-10bp;gc_cont=0.516
contig_6_4           -            321 tRNA_anti-codon      PF01336.20    75   8.8e-18   57.8   0.0   1   1   7.6e-20   1.4e-17   57.1   0.0     1    75    35   113    35   113 0.98 # 1104 # 2066 # -1 # ID=5_4;partial=00;start_type=GTG;rbs_motif=None;rbs_spacer=None;gc_cont=0.480
contig_6_15          -             60 TPR_2                PF07719.12    34   0.00011   15.9   0.1   1   1     8e-07   0.00015   15.4   0.1     6    33     2    29     1    30 0.94 # 7847 # 8026 # -1 # ID=5_15;partial=00;start_type=GTG;rbs_motif=GGA/GAG/AGG;rbs_spacer=5-10bp;gc_cont=0.433
#
# Program:         hmmsearch
# Version:         3.3.2 (Nov 2020)
# Pipeline mode:   SEARCH
# Query file:      /tmp/da4a50a4-4680-4659-a6d8-b91df49b3bc9
# Target file:     checkm/sample2/bins/assembly/genes.faa
# Option settings: hmmsearch --domtblout checkm/sample2/bins/assembly/hmmer.analyze.txt --noali --notextw -E 0.1 --domE 0.1 --cpu 5 /tmp/da4a50a4-4680-4659-a6d8-b91df49b3bc9 checkm/sample2/bins/assembly/genes.faa 
# Current dir:     /cephfs/abteilung4/Projects_NGS/Metadetect/testdata/testdata_1k/metadetect_2022-03-18
# Date:            Fri Mar 18 13:49:41 2022
# [ok]
