#FILE	SEQUENCE	START	END	GENE	COVERAGE	COVERAGE_MAP	GAPS	%COVERAGE	%IDENTITY	DATABASE	ACCESSION	PRODUCT
assembly.fasta	contig_4	3172	5266	cda	1-2094/2094	========/======	1/1	100.00	99.76	ecoli_vf	SPG000029	ecoli_vf~~~cda~~~SPG000029 E.coli plasmid pColD-157 DNA.
assembly.fasta	contig_6	3932	6108	cadA	1-2176/2176	========/======	5/5	99.91	99.04	ecoli_vf	SPG000027	ecoli_vf~~~cadA~~~SPG000027 gb|AY319765.1|:1081-3256 Escherichia coli cadBA operon partial sequence
assembly.fasta	contig_6	11663	12482	ECO26_5249	3-819/819	========/======	11/13	99.15	97.82	ecoli_vf	gi:260858240	ecoli_vf~~~ECO26_5249~~~gi:260858240 hypothetical protein
assembly.fasta	contig_6	12631	13829	espG	1-1197/1197	========/======	9/10	99.67	98.59	ecoli_vf	gi:260858241	ecoli_vf~~~espG~~~gi:260858241 T3SS effector EspG
assembly.fasta	contig_6	14973	15368	ler	1-390/390	========/======	5/6	100.00	97.22	ecoli_vf	gi:260845717	ecoli_vf~~~ler~~~gi:260845717 transcription regulator Ler
assembly.fasta	contig_6	15383	15603	ECO103_3637	1-219/219	========/======	2/2	100.00	99.09	ecoli_vf	gi:260845716	ecoli_vf~~~ECO103_3637~~~gi:260845716 T3SS component
assembly.fasta	contig_6	15616	15930	ECO103_3636	1-315/315	========/======	2/2	99.68	99.05	ecoli_vf	gi:260845715	ecoli_vf~~~ECO103_3636~~~gi:260845715 T3SS component
assembly.fasta	contig_6	15927	16526	ECO103_3635	1-600/600	========/======	2/2	99.83	98.83	ecoli_vf	gi:260845714	ecoli_vf~~~ECO103_3635~~~gi:260845714 T3SS component
assembly.fasta	contig_6	16471	17165	ECO26_5255	1-696/696	========/======	3/3	99.71	99.14	ecoli_vf	gi:260858246	ecoli_vf~~~ECO26_5255~~~gi:260858246 T3SS component
assembly.fasta	contig_6	17170	17826	escR	1-654/654	========/======	7/9	99.54	97.88	ecoli_vf	gi:260845712	ecoli_vf~~~escR~~~gi:260845712 T3SS structure protein EscR
assembly.fasta	contig_6	17826	18099	escS	1-270/270	========/======	3/4	100.00	98.17	ecoli_vf	gi:260845711	ecoli_vf~~~escS~~~gi:260845711 T3SS structure protein EscS
assembly.fasta	contig_6	18099	18879	escT	1-777/777	========/======	8/8	99.74	98.59	ecoli_vf	gi:260845710	ecoli_vf~~~escT~~~gi:260845710 T3SS structure protein EscT
assembly.fasta	contig_6	18872	19908	escU	1-1038/1038	========/======	7/9	99.52	98.66	ecoli_vf	gi:260858250	ecoli_vf~~~escU~~~gi:260858250 secretion system apparatus protein SsaU
assembly.fasta	contig_6	19905	20364	ECO26_5260	1-459/459	========/======	1/1	100.00	99.78	ecoli_vf	gi:260858251	ecoli_vf~~~ECO26_5260~~~gi:260858251 hypothetical protein
assembly.fasta	contig_6	20561	20917	glrR	1-357/357	========/======	2/2	99.72	99.16	ecoli_vf	gi:260858252	ecoli_vf~~~glrR~~~gi:260858252 negative regulator GrlR
assembly.fasta	contig_6	20994	21408	glrA	1-414/414	========/======	1/1	100.00	99.76	ecoli_vf	gi:260858253	ecoli_vf~~~glrA~~~gi:260858253 positive regulator GrlA
assembly.fasta	contig_6	21793	22250	cesD	1-456/456	========/======	2/2	100.00	99.56	ecoli_vf	gi:260845705	ecoli_vf~~~cesD~~~gi:260845705 chaperone CesD
assembly.fasta	contig_6	22264	23808	escC	1-1539/1539	========/======	10/10	99.87	99.22	ecoli_vf	gi:260858255	ecoli_vf~~~escC~~~gi:260858255 T3SS structure protein EscC
assembly.fasta	contig_6	23808	24264	sepD	1-456/456	========/======	1/1	100.00	99.56	ecoli_vf	gi:260845703	ecoli_vf~~~sepD~~~gi:260845703 secretion switching protein SepD
assembly.fasta	contig_6	24270	24843	escJ	1-573/573	========/======	3/3	99.83	99.30	ecoli_vf	gi:260845702	ecoli_vf~~~escJ~~~gi:260845702 T3SS structure protein EscJ
assembly.fasta	contig_6	24845	25274	rorf8	1-429/429	========/======	1/1	100.00	99.77	ecoli_vf	gi:260858258	ecoli_vf~~~rorf8~~~gi:260858258 T3SS component
assembly.fasta	contig_6	25307	25609	sepZ	1-303/303	===============	0/0	100.00	99.34	ecoli_vf	gi:260858259	ecoli_vf~~~sepZ~~~gi:260858259 T3SS effector EspZ
assembly.fasta	contig_6	25797	26149	mpc	1-354/354	========/======	5/5	99.15	98.60	ecoli_vf	gi:260858260	ecoli_vf~~~mpc~~~gi:260858260 regulator Mpc
assembly.fasta	contig_6	26146	28171	escV	1-2028/2028	========/======	22/28	99.26	98.09	ecoli_vf	gi:260858261	ecoli_vf~~~escV~~~gi:260858261 T3SS structure protein EscV
assembly.fasta	contig_6	28155	29492	escN	1-1341/1341	========/======	14/15	99.33	98.29	ecoli_vf	gi:260858262	ecoli_vf~~~escN~~~gi:260858262 T3SS structure protein EscN
assembly.fasta	contig_6	29495	29869	ECO26_5272	1-378/378	========/======	5/5	98.94	98.15	ecoli_vf	gi:260858263	ecoli_vf~~~ECO26_5272~~~gi:260858263 T3SS component protein
assembly.fasta	contig_6	29862	30278	ECO103_3616	1-417/417	========/======	3/4	99.52	98.09	ecoli_vf	gi:260845695	ecoli_vf~~~ECO103_3616~~~gi:260845695 T3SS component
assembly.fasta	contig_6	30241	31165	sepQ	1-918/918	========/======	9/11	99.78	98.17	ecoli_vf	gi:260858265	ecoli_vf~~~sepQ~~~gi:260858265 T3SS structure protein SepQ
assembly.fasta	contig_6	31196	31707	espH	1-516/516	========/======	4/4	99.22	99.03	ecoli_vf	gi:260858266	ecoli_vf~~~espH~~~gi:260858266 T3SS effector EspH
assembly.fasta	contig_6	31924	32277	cesF	1-360/360	========/======	4/6	98.33	97.22	ecoli_vf	gi:260858267	ecoli_vf~~~cesF~~~gi:260858267 T3SS chaperone CesF
assembly.fasta	contig_6	32525	33155	map	1-612/612	========/======	15/23	99.67	93.52	ecoli_vf	gi:260858268	ecoli_vf~~~map~~~gi:260858268 T3SS effector Map
assembly.fasta	contig_6	33624	35237	tir	9-1617/1617	========/======	12/13	99.26	98.83	ecoli_vf	gi:260858269	ecoli_vf~~~tir~~~gi:260858269 translocated intimin receptor Tir
assembly.fasta	contig_6	35370	35836	cesT	1-471/471	========/======	3/4	99.15	98.73	ecoli_vf	gi:260845689	ecoli_vf~~~cesT~~~gi:260845689 chaperone CesT
assembly.fasta	contig_6	35897	38759	eae	1-2820/2820	========/======	58/77	99.40	95.62	ecoli_vf	gi:260858271	ecoli_vf~~~eae~~~gi:260858271 intimin
assembly.fasta	contig_6	38986	40235	escD	1-1221/1221	========/======	32/45	99.34	94.44	ecoli_vf	gi:260858272	ecoli_vf~~~escD~~~gi:260858272 T3SS structure protein EscD
assembly.fasta	contig_6	40387	41504	sepL	3-1056/1056	========/======	46/74	99.34	87.98	ecoli_vf	gi:260858273	ecoli_vf~~~sepL~~~gi:260858273 secretion switching protein SepL
assembly.fasta	contig_6	41569	42188	espA	4-579/579	========/======	29/48	99.14	86.17	ecoli_vf	gi:260858274	ecoli_vf~~~espA~~~gi:260858274 translocator EspA
assembly.fasta	contig_6	42202	43370	espD	1-1143/1143	========/======	39/58	98.60	91.56	ecoli_vf	gi:260858275	ecoli_vf~~~espD~~~gi:260858275 translocator EspD
assembly.fasta	contig_6	43391	44333	espB	1-945/945	========/======	24/40	97.78	91.81	ecoli_vf	gi:260858276	ecoli_vf~~~espB~~~gi:260858276 translocator EspB
assembly.fasta	contig_6	44342	44735	cesD2	3-404/408	========/======	22/30	93.87	87.41	ecoli_vf	gi:260845682	ecoli_vf~~~cesD2~~~gi:260845682 chaperone CesD2
assembly.fasta	contig_6	44770	44961	escF	1-189/222	========/====..	10/15	82.43	84.85	ecoli_vf	gi:260845681	ecoli_vf~~~escF~~~gi:260845681 T3SS structure protein EscF
