sample	phasing_success	phasing_characterization	multiple_serotypes	serotypes	multiple_pathotypes	pathotypes	unphased_information
sample1	partial	NA;success	3	NA;:H19;O8:	1	NA	partial;hasonly_O;has_pathotype
sample2	none	NA	2	NA;O26:H11	1	NA;eae	full;both_antigens;has_pathotype
